

{name} 様 よりお問い合わせがありました。

━━━━━━━━━━━━━━━━━━━━━━━━━━━━━━━━━

受付日時：%{Y}年%{n}月%{j}日 %{H}:%{i}:%{s}
通番 : {serialNumber}

■お問い合わせ情報

ご用件　　　　： {description}
お問い合わせ内容：
{inquiry}[raw]


■お客様情報

会社名　　　　： {organization}
お名前　　　　： {family-name} {given-name}
メールアドレス： {email}
お電話番号　　： {tel}
ご住所　　　　： 〒{postal-code}　{address-level1}　{address1}　{address2}

━━━━━━━━━━━━━━━━━━━━━━━━━━━━━━━━━
