<svg xmlns="http://www.w3.org/2000/svg" width="39.562" height="43.055" viewBox="0 0 39.562 43.055">
  <g id="icon_facebook" transform="translate(0)">
    <rect id="長方形_392" data-name="長方形 392" width="39.561" height="43.054" fill="none"/>
    <path id="パス_1" data-name="パス 1" d="M93.407,39.561V21.539h6.154l.879-7.033H93.407v-4.4c0-1.978.659-3.517,3.517-3.517h3.736V.22C99.781.22,97.583,0,95.165,0c-5.275,0-9.011,3.3-9.011,9.231v5.275H80v7.033h6.154V39.561Z" transform="translate(-70.11 0.002)" fill="#fff" fill-rule="evenodd"/>
  </g>
</svg>
